<?xml version="1.0" standalone="no"?>
<!DOCTYPE svg PUBLIC "-//W3C//DTD SVG 20010904//EN"
 "http://www.w3.org/TR/2001/REC-SVG-20010904/DTD/svg10.dtd">
<svg version="1.0" xmlns="http://www.w3.org/2000/svg"
 width="73.000000pt" height="73.000000pt" viewBox="0 0 73.000000 73.000000"
 preserveAspectRatio="xMidYMid meet">
<g transform="translate(0.000000,73.000000) scale(0.100000,-0.100000)"
fill="#FE4201" stroke="none">
<path d="M128 600 c72 -74 132 -138 132 -142 0 -11 -54 -22 -93 -19 -49 4 -77
-20 -77 -64 0 -18 7 -38 15 -45 8 -7 15 -29 15 -50 0 -23 9 -50 24 -71 l23
-34 -86 -90 -86 -90 90 86 90 87 50 -27 c74 -39 189 -42 276 -7 l64 26 85 -83
85 -82 -83 86 -83 86 25 38 c17 24 26 52 26 75 0 21 7 43 15 50 22 18 19 73
-5 95 -14 12 -30 16 -57 13 -23 -3 -51 1 -71 10 l-32 16 37 38 c21 22 47 38
59 38 24 0 54 34 54 59 0 9 26 43 58 76 l57 60 -61 -58 c-38 -36 -64 -55 -68
-48 -9 13 -68 15 -82 1 -5 -5 -24 -6 -49 0 -81 19 -82 19 -102 -72 l-19 -83
-39 -7 -40 -6 -140 136 -140 137 133 -135z m354 -5 c15 -4 34 -17 42 -30 14
-21 12 -24 -25 -61 -32 -32 -46 -38 -72 -35 -18 1 -34 4 -36 6 -3 4 14 90 25
123 2 7 12 11 21 8 10 -3 30 -8 45 -11z m-182 -260 c27 -32 -23 -82 -55 -55
-15 13 -20 51 -8 63 12 12 50 7 63 -8z m208 -16 c6 -49 -58 -65 -73 -18 -9 27
13 51 44 47 20 -2 27 -9 29 -29z m-138 -129 c34 0 64 6 78 16 12 8 22 11 22 6
0 -16 -50 -32 -100 -32 -50 0 -100 16 -100 32 0 5 10 2 22 -6 14 -10 44 -16
78 -16z"/>
</g>
</svg>
